…
``` r
# workflow has feature engineering and model algorithm
netflix_fit <- pull_workflow_fit(final_fitted$.workflow[[1]])
```

``` r
tidy(netflix_fit) %>% arrange(estimate)
```

    ## # A tibble: 101 x 2
    ##    term                          estimate
    ##    <chr>                            <dbl>
    ##  1 tfidf_description_documentary  -0.126 
    ##  2 tfidf_description_film         -0.0844
    ##  3 tfidf_description_man          -0.0778
    ##  4 tfidf_description_father       -0.0763
    ##  5 tfidf_description_stand        -0.0715
    ##  6 tfidf_description_falls        -0.0686
    ##  7 tfidf_description_woman        -0.0617
    ##  8 tfidf_description_begins       -0.0572
    ##  9 tfidf_description_save         -0.0563
    ## 10 tfidf_description_gets         -0.0557
    ## # … with 91 more rows
…
